Analyses for Berenbaum, Qian, & Gilmore
…
## 
## $report$Notes
## $report$Notes$title
## [1] "\n---Notes---\n"
## 
## $report$Notes$summary
## [1] "CIs are at the 95 % level.\n This comparison was made on unpaired data.\n Equal variance was assumed.\n s in the row for the difference is the pooled standard deviation"
## 
## 
## 
## $type
## [1] "fromRaw"
## 
## $raw_data
## # A tibble: 130 x 2
##    iv         dv
##    <fct>   <dbl>
##  1 Females -1.80
##  2 Females -1.47
##  3 Males   -1.92
##  4 Females -1.72
##  5 Females -1.71
##  6 Females -1.97
##  7 Females -1.81
##  8 Females -1.65
##  9 Females -1.26
## 10 Females -1.92
## # … with 120 more rows
## 
## $x
## [1] "Sex.factor"
## 
## $y
## [1] "log_contrast"
## 
## attr(,"class")
…
## 
## $report$Notes
## $report$Notes$title
## [1] "\n---Notes---\n"
## 
## $report$Notes$summary
## [1] "CIs are at the 95 % level.\n This comparison was made on unpaired data.\n Equal variance was assumed.\n s in the row for the difference is the pooled standard deviation"
## 
## 
## 
## $type
## [1] "fromRaw"
## 
## $raw_data
## # A tibble: 128 x 2
##    iv         dv
##    <fct>   <dbl>
##  1 Females -2.29
##  2 Females -2.22
##  3 Males   -2.31
##  4 Females -2.73
##  5 Females -2.14
##  6 Females -1.78
##  7 Females -2.37
##  8 Females -2.46
##  9 Females -2.23
## 10 Females -2.35
## # … with 118 more rows
## 
## $x
## [1] "Sex.factor"
## 
## $y
## [1] "log_motion"
## 
## attr(,"class")
…
## 
## $report$Notes
## $report$Notes$title
## [1] "\n---Notes---\n"
## 
## $report$Notes$summary
## [1] "CIs are at the 95 % level.\n This comparison was made on unpaired data.\n Equal variance was assumed.\n s in the row for the difference is the pooled standard deviation"
## 
## 
## 
## $type
## [1] "fromRaw"
## 
## $raw_data
## # A tibble: 131 x 2
##    iv         dv
##    <fct>   <dbl>
##  1 Females    28
##  2 Females    15
##  3 Males      30
##  4 Females    24
##  5 Females    28
##  6 Females    21
##  7 Females    28
##  8 Females    35
##  9 Females    15
## 10 Females    30
## # … with 121 more rows
## 
## $x
## [1] "Sex.factor"
## 
## $y
## [1] "mental_rot"
## 
## attr(,"class")
…
## 
## $report$Notes
## $report$Notes$title
## [1] "\n---Notes---\n"
## 
## $report$Notes$summary
## [1] "CIs are at the 95 % level.\n This comparison was made on unpaired data.\n Equal variance was assumed.\n s in the row for the difference is the pooled standard deviation"
## 
## 
## 
## $type
## [1] "fromRaw"
## 
## $raw_data
## # A tibble: 131 x 2
##    iv         dv
##    <fct>   <dbl>
##  1 Females  7.25
##  2 Females  6   
##  3 Males    8.5 
##  4 Females 14.8 
##  5 Females  7.5 
##  6 Females  6   
##  7 Females  9.25
##  8 Females  5   
##  9 Females  3.75
## 10 Females  2.75
## # … with 121 more rows
## 
## $x
## [1] "Sex.factor"
## 
## $y
## [1] "vocab"
## 
## attr(,"class")
…
