Gather and Clean Contrast Sensitivity (Abramov)
…
## See spec(...) for full column specifications.

s1_subset <- s1 %>%
  dplyr::select(., Participant, Gender,
                loop_trial.thisN,
                loop_trial.intensity,
                correctAns,
                resp,
                resp.rt) %>%
  dplyr::filter(., loop_trial.thisN >= 0) %>%
  dplyr::mutate(run = rep(1:4, each=30))
s1_subset

## # A tibble: 120 x 8
##    Participant Gender loop_trial.thisN loop_trial.inte correctAns resp 
##          <dbl> <lgl>             <dbl>            <dbl> <chr>      <chr>
##  1     2.02e15 NA                    0           0.3    ['left']   left 
##  2     2.02e15 NA                    1           0.294  ['left']   left 
##  3     2.02e15 NA                    2           0.254  ['left']   left 
##  4     2.02e15 NA                    3           0.219  ['left']   left 
##  5     2.02e15 NA                    4           0.188  ['down']   down 
##  6     2.02e15 NA                    5           0.161  ['down']   down 
##  7     2.02e15 NA                    6           0.136  ['down']   down 
##  8     2.02e15 NA                    7           0.113  ['down']   down 
##  9     2.02e15 NA                    8           0.0913 ['left']   left 
## 10     2.02e15 NA                    9           0.0709 ['down']   down 
## #  with 110 more rows, and 2 more variables: resp.rt <dbl>, run <int>
…
## See spec(...) for full column specifications.

s2_subset <- s2 %>%
  dplyr::select(., Participant, Gender,
                loop_trial.thisN,
                loop_trial.intensity,
                correctAns,
                resp,
                resp.rt) %>%
  dplyr::filter(., loop_trial.thisN >= 0) %>%
  dplyr::mutate(run = rep(1:4, each=30))
s2_subset

## # A tibble: 120 x 8
##    Participant Gender loop_trial.thisN loop_trial.inte correctAns resp 
##          <dbl> <lgl>             <dbl>            <dbl> <chr>      <chr>
##  1     2.02e15 FALSE                 0           0.3    ['left']   left 
##  2     2.02e15 FALSE                 1           0.294  ['left']   left 
##  3     2.02e15 FALSE                 2           0.254  ['left']   left 
##  4     2.02e15 FALSE                 3           0.219  ['down']   down 
##  5     2.02e15 FALSE                 4           0.188  ['left']   left 
##  6     2.02e15 FALSE                 5           0.161  ['left']   left 
##  7     2.02e15 FALSE                 6           0.136  ['left']   left 
##  8     2.02e15 FALSE                 7           0.113  ['left']   left 
##  9     2.02e15 FALSE                 8           0.0913 ['left']   left 
## 10     2.02e15 FALSE                 9           0.0709 ['down']   down 
## #  with 110 more rows, and 2 more variables: resp.rt <dbl>, run <int>
…
