Gather and Clean Motion Temporal Threshold (Murray))
…
s1_clean <- s_data %>%
  mutate(., run = run_n + 1) %>%
  rename(., corr = correct,
         dur_s = FWHM)

s1_subset <- s1_clean %>%
  dplyr::select(.,
                run,
                trial_n,
                dur_s,
                corr,
                rt)
s1_subset

## # A tibble: 120 x 5
##      run trial_n  dur_s  corr    rt
##    <dbl>   <dbl>  <dbl> <dbl> <dbl>
##  1     1       1 0.198      1 0.42 
##  2     1       2 0.192      1 0.428
##  3     1       3 0.152      1 0.416
##  4     1       4 0.117      1 0.693
##  5     1       5 0.0861     1 0.444
##  6     1       6 0.0587     1 0.414
##  7     1       7 0.0336     0 0.673
##  8     1       8 0.131      1 0.752
##  9     1       9 0.112      1 0.825
## 10     1      10 0.0952     1 0.793
## # … with 110 more rows
…
